Data Wrangling
…
Check number of data points per age of child and rater combo for externalizing symptoms, filtering out missing values:

data_df_long %>%
    select(ext_scale_f, ext_scale_m, ext_scale_c, Age_int) %>%
    pivot_longer(cols = c(ext_scale_f, ext_scale_m, ext_scale_c), names_to = "rater", values_to = "rating") %>%
    mutate(
        rater = case_when(
            rater == "ext_scale_f" ~ "Father",
            rater == "ext_scale_m" ~ "Mother",
            rater == "ext_scale_c" ~ "Child"
        )) %>% 
    filter(!is.na(rating)) %>% 
    group_by(rater, Age_int) %>% count()

# A tibble: 47 × 3
# Groups:   rater, Age_int [47]
   rater Age_int     n
   <chr>   <dbl> <int>
 1 Child       7    54
 2 Child       8   580
 3 Child       9  1014
 4 Child      10  1149
 5 Child      11   689
 6 Child      12   332
 7 Child      13   439
 8 Child      14   478
 9 Child      15   523
10 Child      16   689
# ℹ 37 more rows
Check number of data points per age of child and rater combo for internalizing symptoms, filtering out missing values:

data_df_long %>%
    select(int_scale_f, int_scale_m, int_scale_c, Age_int) %>%
    pivot_longer(cols = c(int_scale_f, int_scale_m, int_scale_c), names_to = "rater", values_to = "rating") %>%
  mutate(
        rater = case_when(
            rater == "int_scale_f" ~ "Father",
            rater == "int_scale_m" ~ "Mother",
            rater == "int_scale_c" ~ "Child"
        )) %>% 
  filter(!is.na(rating)) %>% 
    group_by(rater, Age_int) %>% count()

# A tibble: 55 × 3
# Groups:   rater, Age_int [55]
   rater Age_int     n
   <chr>   <dbl> <int>
 1 Child       7    55
 2 Child       8   587
 3 Child       9  1019
 4 Child      10  1140
 5 Child      11   691
 6 Child      12   332
 7 Child      13   441
 8 Child      14   476
 9 Child      15   520
10 Child      16   683
# ℹ 45 more rows
…
