Data Analysis
…
Warning: There were 4 warnings in `reframe()`.
The first warning was:
ℹ In argument: `min_edu = c(min(m1educ_m, na.rm = TRUE), min(f1educ_f, na.rm =
  TRUE))`.
ℹ In group 13: `IDN = China-Chongqing`.
Caused by warning in `min()`:
! no non-missing arguments to min; returning Inf
ℹ Run `dplyr::last_dplyr_warnings()` to see the 3 remaining warnings.

# A tibble: 26 × 5
   IDN            Parent  mean_edu min_edu max_edu
   <fct>          <chr>      <dbl>   <dbl>   <dbl>
 1 China-Shanghai Mothers     13.6       5      19
 2 China-Shanghai Fathers     14         8      24
 3 Italy-Naples   Mothers     10.1       0      22
 4 Italy-Naples   Fathers     10.7       3      24
 5 Italy-Rome     Mothers     14.1       5      25
 6 Italy-Rome     Fathers     13.8       5      31
 7 Kenya          Mothers     10.7       0      20
 8 Kenya          Fathers     12.3       3      29
 9 Philippines    Mothers     13.6       5      27
10 Philippines    Fathers     13.9       5      25
# ℹ 16 more rows
…
Warning: `as.tibble()` was deprecated in tibble 2.0.0.
ℹ Please use `as_tibble()` instead.
ℹ The signature and semantics have changed, see `?as_tibble`.

cor_df_ext_ci <- cor_df_ext_ci %>% as_tibble() %>% 
  bind_cols(age_cat_3_vect) %>% 
  rename(Age_cat = "value") %>% 
  filter(!is.na(Age_cat))

cor_df_ext_ci$Age_cat <- cor_df_ext_ci$Age_cat %>% as_factor()

print(cor_df_ext_ci)

# A tibble: 33 × 6
   Parameter1 Parameter2     r CI_low CI_high Age_cat
   <chr>      <chr>      <dbl>  <dbl>   <dbl> <fct>  
 1 Fathers    Mothers    0.521  0.454   0.583 7-8    
 2 Fathers    Children   0.246  0.162   0.327 7-8    
 3 Mothers    Children   0.259  0.182   0.333 7-8    
 4 Fathers    Mothers    0.480  0.422   0.533 9      
 5 Fathers    Children   0.267  0.199   0.332 9      
 6 Mothers    Children   0.274  0.213   0.332 9      
 7 Fathers    Mothers    0.545  0.494   0.592 10     
 8 Fathers    Children   0.300  0.236   0.361 10     
 9 Mothers    Children   0.348  0.294   0.401 10     
10 Fathers    Mothers    0.464  0.394   0.529 11     
# ℹ 23 more rows
…
cor_df_int_ci <- do.call(rbind, lapply(1:12, conv_cor_matrix_ci, cor_df_int_temp))

cor_df_int_ci <- cor_df_int_ci %>% as_tibble() %>% 
  bind_cols(age_cat_3_vect) %>% 
  rename(Age_cat = "value") %>% 
  filter(!is.na(Age_cat))

cor_df_int_ci$Age_cat <- cor_df_int_ci$Age_cat %>% as_factor()

print(cor_df_int_ci)

# A tibble: 33 × 6
   Parameter1 Parameter2     r CI_low CI_high Age_cat
   <chr>      <chr>      <dbl>  <dbl>   <dbl> <fct>  
 1 Fathers    Mothers    0.402 0.325    0.474 7-8    
 2 Fathers    Children   0.236 0.152    0.317 7-8    
 3 Mothers    Children   0.141 0.0614   0.219 7-8    
 4 Fathers    Mothers    0.419 0.358    0.476 9      
 5 Fathers    Children   0.247 0.179    0.313 9      
 6 Mothers    Children   0.227 0.166    0.287 9      
 7 Fathers    Mothers    0.424 0.366    0.479 10     
 8 Fathers    Children   0.193 0.126    0.259 10     
 9 Mothers    Children   0.263 0.205    0.319 10     
10 Fathers    Mothers    0.429 0.356    0.496 11     
# ℹ 23 more rows
…
age_cat_4_vect <- cor_df_ext_temp$Age_cat %>% as.tibble %>% uncount(4) %>% as.vector()

icc_df_ext_age_rater <- icc_df_ext_age_rater %>% 
  bind_cols(age_cat_4_vect) %>% 
  rename(Age_cat = "value") %>% 
  filter(!is.na(Age_cat))

icc_df_ext_age_rater$Age_cat <- icc_df_ext_age_rater$Age_cat %>% as_factor()

icc_df_ext_age_rater

# A tibble: 44 × 5
   raters                  icc_value ci_lower_boundary ci_upper_boundary Age_cat
   <chr>                       <dbl>             <dbl>             <dbl> <fct>  
 1 ext_scale_f_ext_scale_…     0.344             0.287             0.401 7-8    
 2 ext_scale_f_ext_scale_c     0.246             0.162             0.326 7-8    
 3 ext_scale_f_ext_scale_m     0.517             0.448             0.579 7-8    
 4 ext_scale_c_ext_scale_m     0.255             0.178             0.328 7-8    
 5 ext_scale_f_ext_scale_…     0.325             0.278             0.372 9      
 6 ext_scale_f_ext_scale_c     0.266             0.198             0.331 9      
 7 ext_scale_f_ext_scale_m     0.477             0.420             0.531 9      
 8 ext_scale_c_ext_scale_m     0.274             0.214             0.332 9      
 9 ext_scale_f_ext_scale_…     0.399             0.356             0.443 10     
10 ext_scale_f_ext_scale_c     0.295             0.230             0.356 10     
# ℹ 34 more rows
…
icc_df_int_age_rater <- icc_df_int_age_rater %>% 
  bind_cols(age_cat_4_vect) %>% 
  rename(Age_cat = "value") %>% 
  filter(!is.na(Age_cat))

icc_df_int_age_rater$Age_cat <- icc_df_int_age_rater$Age_cat %>% as_factor()

icc_df_int_age_rater

# A tibble: 44 × 5
   raters                  icc_value ci_lower_boundary ci_upper_boundary Age_cat
   <chr>                       <dbl>             <dbl>             <dbl> <fct>  
 1 int_scale_f_int_scale_…     0.240            0.177              0.304 7-8    
 2 int_scale_f_int_scale_c     0.199            0.0896             0.301 7-8    
 3 int_scale_f_int_scale_m     0.394            0.315              0.467 7-8    
 4 int_scale_c_int_scale_m     0.131            0.0523             0.208 7-8    
 5 int_scale_f_int_scale_…     0.256            0.198              0.314 9      
 6 int_scale_f_int_scale_c     0.212            0.113              0.302 9      
 7 int_scale_f_int_scale_m     0.414            0.353              0.472 9      
 8 int_scale_c_int_scale_m     0.205            0.125              0.279 9      
 9 int_scale_f_int_scale_…     0.273            0.219              0.327 10     
10 int_scale_f_int_scale_c     0.170            0.0904             0.245 10     
# ℹ 34 more rows
…
# The data_df_longer_rater data contains several values in Age_cat that are NA. This leads the code to try to fit a model to when Age_cat = NA. Therefore, we will filter out the responses that have missing age values before fitting the model
data_df_longer_rater_no_na <- data_df_longer_rater %>% filter(!is.na(Age_cat))

uniform_ass_df_ext_age <- test_uniform_ass_age(data_df_longer_rater_no_na, model_ext, 18)

colnames(uniform_ass_df_ext_age) <- gsub("^V(\\d)", "est_\\1", colnames(uniform_ass_df_ext_age))

print(uniform_ass_df_ext_age)

# A tibble: 33 × 23
   rater Age_cat  rmsea   cfi   tli  est_1  est_2  est_3  est_4  est_5  est_6
   <fct> <fct>    <dbl> <dbl> <dbl>  <dbl>  <dbl>  <dbl>  <dbl>  <dbl>  <dbl>
 1 cya   7-8     0.0228 0.985 0.983  0.507  0.587  0.615  0.207  0.343  0.624
 2 cya   9       0.0380 0.971 0.967  0.478  0.571  0.688  0.382  0.563  0.652
 3 cya   10      0.0330 0.981 0.978  0.507  0.631  0.699  0.395  0.662  0.608
 4 cya   11      0.0333 0.978 0.975  0.551  0.571  0.652  0.426  0.547  0.613
 5 cya   12      0      1     1.00  -0.433 -0.702 -0.621 -0.445 -0.560 -0.695
 6 cya   13      0.0343 0.983 0.981  0.445  0.657  0.685  0.561  0.604  0.761
 7 cya   14      0.0399 0.966 0.962  0.481  0.552  0.601  0.436  0.508  0.601
 8 cya   15      0.0426 0.966 0.961  0.678  0.640  0.573  0.417  0.520  0.666
 9 cya   16      0.0483 0.956 0.951  0.637  0.509  0.592  0.349  0.631  0.744
10 cya   17      0.0459 0.962 0.957  0.655  0.596  0.657  0.417  0.626  0.756
# ℹ 23 more rows
# ℹ 12 more variables: est_7 <dbl>, est_8 <dbl>, est_9 <dbl>, est_10 <dbl>,
#   est_11 <dbl>, est_12 <dbl>, est_13 <dbl>, est_14 <dbl>, est_15 <dbl>,
#   est_16 <dbl>, est_17 <dbl>, est_18 <dbl>
…
Fitting the models for internalizing symptoms with age categories:

# We still use the data_df_longer_rater_no_na data frame which is filtered to have no data points with missing age categories values

uniform_ass_df_int_age <- test_uniform_ass_age(data_df_longer_rater_no_na, model_int, 17)

colnames(uniform_ass_df_int_age) <- gsub("^V(\\d)", "est_\\1", colnames(uniform_ass_df_int_age))

print(uniform_ass_df_int_age)

# A tibble: 33 × 22
   rater Age_cat  rmsea   cfi   tli est_1 est_2 est_3 est_4 est_5 est_6 est_7
   <fct> <fct>    <dbl> <dbl> <dbl> <dbl> <dbl> <dbl> <dbl> <dbl> <dbl> <dbl>
 1 cya   7-8     0.0433 0.964 0.959 0.441 0.426 0.583 0.256 0.494 0.512 0.507
 2 cya   9       0.0434 0.972 0.968 0.486 0.519 0.493 0.309 0.497 0.544 0.642
 3 cya   10      0.0506 0.968 0.963 0.583 0.506 0.450 0.311 0.596 0.623 0.689
 4 cya   11      0.0598 0.960 0.955 0.602 0.522 0.471 0.309 0.663 0.564 0.718
 5 cya   12      0.0476 0.982 0.980 0.694 0.583 0.552 0.365 0.599 0.659 0.714
 6 cya   13      0.0429 0.984 0.982 0.748 0.585 0.494 0.352 0.735 0.603 0.695
 7 cya   14      0.0609 0.970 0.966 0.697 0.620 0.480 0.431 0.687 0.608 0.750
 8 cya   15      0.0637 0.976 0.973 0.744 0.652 0.465 0.343 0.773 0.631 0.835
 9 cya   16      0.0645 0.979 0.976 0.744 0.626 0.467 0.351 0.745 0.607 0.835
10 cya   17      0.0603 0.983 0.981 0.779 0.646 0.623 0.466 0.847 0.597 0.834
# ℹ 23 more rows
# ℹ 10 more variables: est_8 <dbl>, est_9 <dbl>, est_10 <dbl>, est_11 <dbl>,
#   est_12 <dbl>, est_13 <dbl>, est_14 <dbl>, est_15 <dbl>, est_16 <dbl>,
#   est_17 <dbl>
…
Checking for Non-ideal combinations:

We defined RMSEA > .05 and CFI and TLI < .95 as being ok, but not ideal

# Filtering rows with fit indices with non-ideal fit indices
uniform_ass_df_int_age %>% filter(rmsea > .05 | cfi < .95 | tli < .95)

# A tibble: 28 × 22
   rater Age_cat  rmsea   cfi   tli est_1 est_2 est_3 est_4 est_5 est_6 est_7
   <fct> <fct>    <dbl> <dbl> <dbl> <dbl> <dbl> <dbl> <dbl> <dbl> <dbl> <dbl>
 1 cya   10      0.0506 0.968 0.963 0.583 0.506 0.450 0.311 0.596 0.623 0.689
 2 cya   11      0.0598 0.960 0.955 0.602 0.522 0.471 0.309 0.663 0.564 0.718
 3 cya   14      0.0609 0.970 0.966 0.697 0.620 0.480 0.431 0.687 0.608 0.750
 4 cya   15      0.0637 0.976 0.973 0.744 0.652 0.465 0.343 0.773 0.631 0.835
 5 cya   16      0.0645 0.979 0.976 0.744 0.626 0.467 0.351 0.745 0.607 0.835
 6 cya   17      0.0603 0.983 0.981 0.779 0.646 0.623 0.466 0.847 0.597 0.834
 7 cya   18-25   0.0571 0.987 0.985 0.768 0.604 0.499 0.330 0.766 0.648 0.845
 8 f     7-8     0.0583 0.940 0.931 0.442 0.379 0.461 0.393 0.526 0.556 0.625
 9 f     9       0.0648 0.932 0.922 0.483 0.471 0.380 0.273 0.550 0.618 0.605
10 f     11      0.0618 0.950 0.943 0.586 0.382 0.569 0.366 0.683 0.670 0.642
# ℹ 18 more rows
# ℹ 10 more variables: est_8 <dbl>, est_9 <dbl>, est_10 <dbl>, est_11 <dbl>,
#   est_12 <dbl>, est_13 <dbl>, est_14 <dbl>, est_15 <dbl>, est_16 <dbl>,
#   est_17 <dbl>
…
